3.720452186584472543e+01
2.514222362518310661e+01
1.139795358647155808e+05
1.724239717483520451e+01
1.589769748687744055e+01
1.413055782318115305e+01
1.388850337982177763e+01
1.628271514892578153e+01
1.170420656204223597e+01
1.124332824707031264e+01
1.096313360214233334e+01
1.058764911651611307e+01
1.050928771972656328e+01
9.759346256256103302e+00
9.726600513458251385e+00
1.074657987594604514e+01
9.659888629913330860e+00
9.550819911956786257e+00
9.537189903259276846e+00
1.057159051895141566e+01
9.034255552291870828e+00
8.572814359664917561e+00
8.988219432830810263e+00
8.774032793045044798e+00
8.820668258666991335e+00
8.618142986297607777e+00
8.344217348098755593e+00
8.388978242874145508e+00
8.190143747329711843e+00
8.348758373260498189e+00
8.143664989471435689e+00
8.280204286575317596e+00
8.218782482147217294e+00
8.000912818908691548e+00
8.171629619598387961e+00
8.119618349075317099e+00
8.440281829833985228e+00
8.048397111892700906e+00
8.126645965576171804e+00
7.865273590087890732e+00
7.836360921859741424e+00
7.728701152801513707e+00
7.908699254989624450e+00
7.825886449813842738e+00
8.011399173736572621e+00
7.849940385818481303e+00
7.768961896896362518e+00
7.789665794372558238e+00
7.655754785537720153e+00
7.671950149536132635e+00
